Commission to Analyze Taxpayer Spending (CATS) – STA 9750 Submission Material
…
3.1 Which job title has the highest base rate of pay? (If needed, assume a standard 2000 hour work year and no overtime.)

Show the code

total_compensation |> mutate(
  base_rate = case_when(
    pay_basis == "per Annum" ~ base_salary, 
    pay_basis == "per Hour" ~ base_salary * 2000,
    pay_basis == "per Day" ~ base_salary * 2000/7.5,
    TRUE ~ NA_real_  
  )
) |> group_by(title_description) |> summarize(mean_rate=mean(base_rate)) |>
  arrange(desc(mean_rate))

# A tibble: 1,977 × 2
   title_description                                 mean_rate
   <chr>                                                 <dbl>
 1 Custodian Engineer                               120870091.
 2 Member, Civilian Complaint Review Board             639785.
 3 Medical Investigator                                623926.
 4 Chairman                                            379618.
 5 Member Of The Environmental Control Board - Oath    350188.
 6 Chief Actuary                                       296470.
 7 Pension Investment Advisor                          295814.
 8 Chancellor                                          287066.
 9 Captain - Chief Of Staff                            276588 
10 First Deputy Mayor                                  274919.
# ℹ 1,967 more rows

We can see the list of job titles with the highest base rate of pay. But the first title seems an outlier, I would say the member of civilian complaint review board has the highest base rate of pay.

3.2 Which individual & in what year had the single highest city total payroll (regular and overtime combined)?

Show the code

total_compensation |> 
  summarize(fiscal_year,first_name,last_name,total_compensation) |>
  arrange(desc(total_compensation))

# A tibble: 6,225,611 × 4
   fiscal_year first_name last_name   total_compensation
         <dbl> <chr>      <chr>                    <dbl>
 1        2022 Gregory    Russ                    414707
 2        2021 Gregory    Russ                    414707
 3        2020 Gregory    Russ                    414707
 4        2024 Lisa       Bova-Hiatt              393532
 5        2024 Steven     Meier                   373320
 6        2023 David      Banks                   363346
 7        2023 David      Banks                   363346
 8        2022 David      Banks                   363346
 9        2022 Meisha     Ross Porter             363346
10        2021 Meisha     Ross Porter             363346
# ℹ 6,225,601 more rows

We can see Gregory Russ had the highest payroll of 414707 in 2020, 2021, and 2022.

3.3 Which individual worked the most overtime hours in this data set?

Show the code

total_compensation |> summarize(fiscal_year,first_name,last_name,ot_hours) |>
  arrange(desc(ot_hours))

# A tibble: 6,225,611 × 4
   fiscal_year first_name last_name   ot_hours
         <dbl> <chr>      <chr>          <dbl>
 1        2022 James      Internicola    3693.
 2        2022 Michael    Thompson       3618.
 3        2022 Timothy    Sands          3556.
 4        2014 John       Murphy         3348.
 5        2022 Seeta      Deochan        3341.
 6        2022 Dion       Middleton      3328.
 7        2024 Kashwayne  Burnett        3303.
 8        2022 Anthony    Messam         3271 
 9        2022 Davey      Payne          3241 
10        2022 Andre      Boucaud        3214 
# ℹ 6,225,601 more rows

James Internicola worked the most overtime hours of 3693.

3.4 Which agency has the highest average total annual payroll (base and overtime pay per employee)?

Show the code

total_compensation |> group_by(agency_name) |>
  summarize(avg_tot_pay=mean(total_compensation)) |>
  arrange(desc(avg_tot_pay))

# A tibble: 169 × 2
   agency_name                    avg_tot_pay
   <chr>                                <dbl>
 1 Office Of Racial Equity            151093.
 2 Commission On Racial Equity        136191 
 3 Districting Commission             120641.
 4 Office Of Criminal Justice         117280.
 5 Office Of Collective Bargainin     114884.
 6 Financial Info Svcs Agency         111230.
 7 Office Of The Actuary              106924.
 8 Bronx Community Board #3           105814.
 9 Public Administrator-Richmond      105752.
10 Municipal Water Fin Authority      101300.
# ℹ 159 more rows
…
Department of Ed Pedagogical has the most employees in every year.

3.6 Which agency has the highest overtime usage (compared to regular hours)?

Show the code

total_compensation |>
  group_by(agency_name) |>
  summarize(ot_usage=mean(ot_hours)/mean(regular_hours)) |>
  arrange(desc(ot_usage))

# A tibble: 169 × 2
   agency_name                  ot_usage
   <chr>                           <dbl>
 1 Board Of Election              0.200 
 2 Fire Department                0.190 
 3 Department Of Correction       0.185 
 4 Department Of Sanitation       0.138 
 5 Police Department              0.125 
 6 Dept Of Citywide Admin Svcs    0.120 
 7 Department Of Transportation   0.115 
 8 Dept. Of Homeless Services     0.109 
 9 Nyc Housing Authority          0.106 
10 Admin For Children's Svcs      0.0812
# ℹ 159 more rows
…
Show the code

employees_above_mayor

# A tibble: 14,076 × 19
   fiscal_year payroll_number agency_name          last_name first_name mid_init
         <dbl>          <dbl> <chr>                <chr>     <chr>      <chr>   
 1        2024             67 Admin For Children'… Cleary    Joan       M       
 2        2024             67 Admin For Children'… Pletniko… Margaret   <NA>    
 3        2024             67 Admin For Children'… Hines-Jo… Lisa       C       
 4        2024             67 Admin For Children'… Gendell   Stephanie  J       
 5        2024             67 Admin For Children'… White     Andrew     K       
 6        2024             67 Admin For Children'… Mendoza   Angel      V       
 7        2024             67 Admin For Children'… Dannhaus… Jess       B       
 8        2024             67 Admin For Children'… Wolkomir  Elizabeth  D       
 9        2024             67 Admin For Children'… Sputz     Alan       W       
10        2024             67 Admin For Children'… Saunders  Winette    <NA>    
# ℹ 14,066 more rows
# ℹ 13 more variables: agency_start_date <dttm>, work_location_borough <chr>,
#   title_description <chr>, leave_status_as_of_june_30 <chr>,
#   base_salary <dbl>, pay_basis <chr>, regular_hours <dbl>,
#   regular_gross_paid <dbl>, ot_hours <dbl>, total_ot_paid <dbl>,
#   total_other_pay <dbl>, total_compensation <dbl>, mayor_pay <dbl>
…
[1] 272525990

It looks like a large amount of money. We would also want to know if this policy was adopted, which agencies and job titles would bear the most. We do this by calculating the average savings in each combination of agencies and job titles and sorting them to see the top ones.

Show the code

savings_by_agency_and_title <- employees_above_mayor |>
  filter(fiscal_year>"2014") |>
  group_by(agency_name,title_description ) |>
  summarize(avg_savings = mean(savings)) |>
  arrange(desc(avg_savings))
savings_by_agency_and_title

# A tibble: 208 × 3
# Groups:   agency_name [67]
   agency_name                   title_description            avg_savings
   <chr>                         <chr>                              <dbl>
 1 Nyc Housing Authority         Chair                            118639.
 2 Dept Of Ed Pedagogical        Assistant Superintendent         104596 
 3 Office Of The Comptroller     Pension Investment Advisor        91686 
 4 Dept Of Ed Pedagogical        Chancellor                        79505.
 5 Nyc Housing Authority         Executive Agency Counsel          67985.
 6 Office Of The Actuary         Chief Actuary                     53196.
 7 Office Of The Actuary         Administrative Actuary            53135 
 8 Office Of The Comptroller     Administrative Staff Analyst      41667.
 9 Community College (Bronx)     President                         36136 
10 Dept Of Health/Mental Hygiene City Medical Specialist           35156.
# ℹ 198 more rows
…
There are some potential upsides of increasing employment to reduce overtime cost. Let’s first find out how many overtime hours worked for each combination of agency and job title. Then we estimate the number of new full-time employees needed to replace that much overtime. I did the job using the following code.

Show the code

overtime_by_agency_and_title <- total_compensation |>
  group_by(agency_name , title_description) |>
  summarize(total_overtime_hours = sum(ot_hours)) |>
  arrange(desc(total_overtime_hours))

overtime_with_ft_equivalents <- overtime_by_agency_and_title |>
  mutate(full_time_equivalents = total_overtime_hours / 2000)

overtime_by_agency_and_title

# A tibble: 8,351 × 3
# Groups:   agency_name [169]
   agency_name              title_description         total_overtime_hours
   <chr>                    <chr>                                    <dbl>
 1 Police Department        Police Officer                       58898639.
 2 Fire Department          Firefighter                          43536213.
 3 Department Of Correction Correction Officer                   34092745.
 4 Department Of Sanitation Sanitation Worker                    23098266.
 5 Police Department        P.o. Da Det Gr3                      15314153.
 6 Police Department        School Safety Agent                  14967018.
 7 Nyc Housing Authority    Caretaker                             9439229.
 8 Police Department        Sergeant-                             8424793.
 9 Fire Department          Lieutenant                            7607797.
10 Police Department        Traffic Enforcement Agent             7003213.
# ℹ 8,341 more rows

Show the code

overtime_with_ft_equivalents

# A tibble: 8,351 × 4
# Groups:   agency_name [169]
   agency_name      title_description total_overtime_hours full_time_equivalents
   <chr>            <chr>                            <dbl>                 <dbl>
 1 Police Departme… Police Officer               58898639.                29449.
 2 Fire Department  Firefighter                  43536213.                21768.
 3 Department Of C… Correction Offic…            34092745.                17046.
 4 Department Of S… Sanitation Worker            23098266.                11549.
 5 Police Departme… P.o. Da Det Gr3              15314153.                 7657.
 6 Police Departme… School Safety Ag…            14967018.                 7484.
 7 Nyc Housing Aut… Caretaker                     9439229.                 4720.
 8 Police Departme… Sergeant-                     8424793.                 4212.
 9 Fire Department  Lieutenant                    7607797.                 3804.
10 Police Departme… Traffic Enforcem…             7003213.                 3502.
# ℹ 8,341 more rows
…
overtime_by_agency_and_title <- overtime_by_agency_and_title |>
  mutate(overtime_cost = total_overtime_hours * 1.5 * avg_regular_salary / 2000)
  
savings_by_agency_and_title <- overtime_by_agency_and_title |>
  mutate(savings = overtime_cost - (total_overtime_hours * avg_regular_salary / 2000)) 
savings_by_agency_and_title |>
  summarize(agency_name,title_description,savings) |>
  arrange(desc(savings))

# A tibble: 8,351 × 3
# Groups:   agency_name [169]
   agency_name              title_description                       savings
   <chr>                    <chr>                                     <dbl>
 1 Police Department        Police Officer                      1040781034.
 2 Fire Department          Firefighter                          836859022.
 3 Department Of Correction Correction Officer                   613245406.
 4 Department Of Sanitation Sanitation Worker                    402214527.
 5 Police Department        P.o. Da Det Gr3                      372704345.
 6 Police Department        Sergeant-                            225040284.
 7 Fire Department          Lieutenant                           198745275.
 8 Police Department        School Safety Agent                  157464286.
 9 Police Department        Lieutenant                           146861382.
10 Police Department        Police Officer D/A Detective 2nd Gr  123805712.
# ℹ 8,341 more rows

Next, let’s determine the aggregate savings possible by agency using the following code.

Show the code

aggregate_savings_by_agency <- savings_by_agency_and_title |>
  group_by(agency_name) |>
  summarize(total_savings = sum(savings)) |>
  arrange(desc(total_savings))
aggregate_savings_by_agency

# A tibble: 169 × 2
   agency_name                    total_savings
   <chr>                                  <dbl>
 1 Department Of Correction          824929213.
 2 Admin For Children's Svcs         157231704.
 3 Board Of Election                  37477300.
 4 Department Of Buildings            29617709.
 5 Dept. Of Design & Construction      9009313.
 6 District Attorney-Manhattan         8708231.
 7 Community College (Manhattan)       7470882.
 8 Nyc Employees Retirement Sys        6808228.
 9 Law Department                      6267436.
10 Community College (Queensboro)      4879669.
# ℹ 159 more rows
…
